<?xml version="1.0" encoding="UTF-8"?>
<svg width="75px" height="18px" viewBox="0 0 75 18" version="1.1" xmlns="http://www.w3.org/2000/svg" xmlns:xlink="http://www.w3.org/1999/xlink">
    <!-- Generator: Sketch 59.1 (86144) - https://sketch.com -->
    <title>Artboard</title>
    <desc>Created with Sketch.</desc>
    <g id="Artboard" stroke="none" stroke-width="1" fill="none" fill-rule="evenodd">
        <path d="M44.3006113,44.3184324 C43.7038658,42.0703963 44.0287244,40.7611303 45.5496938,38.1344689 L45.8143109,37.6841071 C47.8966337,34.1857088 48.4775133,32.2439096 47.6149487,28.9944897 C46.7884476,25.8792809 45.4063316,24.4648991 42.1740897,22.5868925 L41.7418943,22.3391279 C38.7696951,20.6564071 37.7668173,19.7004831 37.1368355,17.3259853 C36.5400731,15.0778855 36.865082,13.7686541 38.3865699,11.1420237 L38.6512769,10.6916669 C40.7343463,7.19323678 41.3155035,5.25139518 40.4529117,2.00187303 C39.6256229,-1.11402541 38.2432774,-2.52888572 35.010588,-4.40809244 L34.578333,-4.65601768 C31.6052841,-6.34009478 30.6018772,-7.29671833 29.9711686,-9.6722177 C29.374422,-11.921447 29.6992879,-13.2318069 31.2199471,-15.8600503 L31.4849025,-16.3113413 C33.5665106,-19.8113322 34.1470264,-21.7543921 33.2836997,-25.0051648 C33.0940339,-25.7193328 32.361367,-26.1445166 31.6472423,-25.9548393 C30.9331175,-25.765162 30.5079596,-25.0324506 30.6976254,-24.3182826 C31.2950903,-22.0685867 30.9703767,-20.7580722 29.4497626,-18.1298659 L29.1848138,-17.6785829 C27.103263,-14.1786883 26.5226331,-12.2360834 27.384987,-8.98573947 C28.2123189,-5.86967859 29.5946662,-4.45481151 32.8273557,-2.57560451 L33.2596107,-2.32767926 C36.2326597,-0.643602155 37.2360665,0.31302139 37.8667751,2.68852076 C38.4634785,4.93639839 38.1384665,6.24561811 36.6169784,8.87224787 L36.3522714,9.32260458 C34.269202,12.8210347 33.6880448,14.7628763 34.5506366,18.0123985 C35.3771377,21.1276073 36.7592537,22.5419891 39.9914956,24.4199957 L40.423691,24.6677603 C43.3958902,26.3504811 44.398768,27.3064051 45.0287498,29.680903 C45.6255379,31.9290996 45.3006815,33.2383741 43.7797123,35.8650359 L43.5150952,36.3153978 C41.4327723,39.8137961 40.8518927,41.7555953 41.7144574,45.0050152 C41.9040405,45.7192052 42.6366582,46.1444738 43.3508049,45.9548792 C44.0649516,45.7652846 44.4901943,45.0326224 44.3006113,44.3184324 Z" id="Stroke-1" fill="#000000" fill-rule="nonzero" transform="translate(37.500000, 10.000000) scale(1, -1) rotate(104.000000) translate(-37.500000, -10.000000) "></path>
    </g>
</svg>