<?xml version="1.0" encoding="UTF-8"?>
<svg width="173px" height="21px" viewBox="0 0 173 21" version="1.1" xmlns="http://www.w3.org/2000/svg" xmlns:xlink="http://www.w3.org/1999/xlink">
    <!-- Generator: Sketch 53.2 (72643) - https://sketchapp.com -->
    <title>Logo@1x</title>
    <desc>Created with Sketch.</desc>
    <g id="Symbols" stroke="none" stroke-width="1" fill="none" fill-rule="evenodd">
        <g id="Logo" fill="#292C33">
            <path d="M37,18 L37,0 L42,0 L42,18 L37,18 Z M29.1886475,12.7894292 L29.1886475,5.4 L34,5.4 L34,13.158064 C34,16.0113799 32.1981266,17.9773465 29.1886475,17.9773465 L29.1886475,18 L24.4779755,18 C21.2107654,18 19,16.3290443 19,13.158064 L19,5.4 L23.8113525,5.4 L23.8113525,12.7894292 C23.8113525,13.4440649 24.3876715,13.9735913 25.1002879,13.9735913 L27.8997121,13.9735913 C28.612048,13.9735913 29.1886475,13.4440649 29.1886475,12.7894292 Z M56.1884676,5.4 L61,5.4 L61,13.158064 C61,16.0113799 59.1983397,17.9773465 56.1890285,17.9773465 L56.1890285,18 L51.4781804,18 C48.2105676,18 46,16.3290443 46,13.158064 L46,5.4 L50.8120933,5.4 L50.8120933,12.7894292 C50.8120933,13.4440649 51.3884339,13.9735913 52.101077,13.9735913 L54.9000449,13.9735913 C55.612127,13.9735913 56.1884676,13.4440649 56.1884676,12.7894292 L56.1884676,5.4 Z M9.52263421,5.6167934 C12.5680148,5.6167934 15,6.88329796 15,10.174287 L15,18 L10.1881977,18 L10.1881977,10.7367001 C10.1881977,10.0940869 9.61238571,9.57392441 8.8997027,9.57392441 L6.09973635,9.57392441 C5.38817524,9.57392441 4.81039996,10.0940869 4.81039996,10.7367001 L4.81039996,18 L0,18 L0,0 L4.81039996,0 L4.81039996,5.8801636 C4.81039996,5.8801636 5.35451843,5.6167934 6.43658496,5.6167934 L9.52263421,5.6167934 Z"></path>
            <path d="M69,17.2830385 L74.0811655,3.14672216 L75.5442248,3.14672216 L80.6253902,17.2830385 L79.5182102,17.2830385 L77.9562955,12.9531738 L71.5900104,12.9531738 L70.0478668,17.2830385 L69,17.2830385 Z M74.773153,4.05619147 L71.9063476,12.0634755 L77.6399584,12.0634755 L74.773153,4.05619147 Z M87.0707596,17.4412071 C84.4412071,17.4412071 82.4245578,15.5431842 82.4245578,12.2611863 L82.4245578,12.1030177 C82.4245578,8.91987513 84.5005203,6.78459938 87.2289282,6.78459938 C89.2653486,6.78459938 90.4120708,7.95109261 91.0052029,9.23621228 L91.0052029,2 L92.0530697,2 L92.0530697,17.2830385 L91.0052029,17.2830385 L91.0052029,14.8907388 C90.4516129,16.1363163 89.0083247,17.4412071 87.0707596,17.4412071 Z M87.169615,16.5515088 C89.2653486,16.5515088 91.024974,15.0291363 91.024974,12.182102 L91.024974,12.0239334 C91.024974,9.17689906 89.4828304,7.67429761 87.3277836,7.67429761 C85.1134235,7.67429761 83.5119667,9.27575442 83.5119667,12.0634755 L83.5119667,12.2216441 C83.5119667,15.0489074 85.1134235,16.5515088 87.169615,16.5515088 Z M98.6368366,17.2830385 L94.6628512,6.94276795 L95.8095734,6.94276795 L99.3288241,16.2351717 L102.828304,6.94276795 L103.895942,6.94276795 L100.001041,17.2830385 L98.6368366,17.2830385 Z M110.361082,17.4412071 C107.37565,17.4412071 105.457856,15.3257024 105.457856,12.2216441 L105.457856,12.0634755 C105.457856,8.9396462 107.434964,6.78459938 110.202914,6.78459938 C112.694069,6.78459938 114.730489,8.40582726 114.730489,11.8262227 L114.730489,12.201873 L106.545265,12.201873 C106.584807,14.9698231 107.909469,16.5515088 110.361082,16.5515088 C112.081165,16.5515088 113.247659,15.8397503 113.603538,14.396462 L114.651405,14.396462 C114.216441,16.3735692 112.575442,17.4412071 110.361082,17.4412071 Z M106.584807,11.351717 L113.64308,11.351717 C113.544225,8.84079084 112.219563,7.67429761 110.202914,7.67429761 C108.206035,7.67429761 106.782518,9.09781478 106.584807,11.351717 Z M117.676379,17.2830385 L117.676379,6.94276795 L118.724246,6.94276795 L118.724246,9.11758585 C119.297607,7.85223725 120.325702,6.86368366 122.223725,6.80437045 L122.223725,7.79292404 C120.226847,7.87200832 118.724246,8.8012487 118.724246,11.5494277 L118.724246,17.2830385 L117.676379,17.2830385 Z M128.075963,17.421436 C126.434964,17.421436 125.545265,16.4526535 125.545265,14.7918835 L125.545265,7.83246618 L124.022893,7.83246618 L124.022893,6.94276795 L125.545265,6.94276795 L125.545265,4.59001041 L126.593132,4.59001041 L126.593132,6.94276795 L129.301769,6.94276795 L129.301769,7.83246618 L126.593132,7.83246618 L126.593132,14.7127992 C126.593132,15.9583767 127.186264,16.5317378 128.135276,16.5317378 C128.669095,16.5317378 129.084287,16.4328824 129.440166,16.314256 L129.440166,17.2039542 C129.104058,17.3225806 128.708637,17.421436 128.075963,17.421436 Z M132.366285,17.2830385 L132.366285,6.94276795 L133.414152,6.94276795 L133.414152,17.2830385 L132.366285,17.2830385 Z M132.880333,4.72840791 C132.46514,4.72840791 132.129032,4.39229969 132.129032,3.97710718 C132.129032,3.58168574 132.46514,3.24557752 132.880333,3.24557752 C133.295525,3.24557752 133.611863,3.58168574 133.611863,3.97710718 C133.611863,4.39229969 133.295525,4.72840791 132.880333,4.72840791 Z M140.294485,17.4609781 C137.862643,17.4609781 136.458897,16.1758585 136.320499,14.1987513 L137.328824,14.1987513 C137.506764,15.6024974 138.376691,16.5712799 140.294485,16.5712799 C142.034339,16.5712799 142.924037,15.780437 142.924037,14.5348595 C142.924037,13.2101977 142.152966,12.7950052 140.215401,12.4391259 C137.684703,11.9843913 136.656608,11.3319459 136.656608,9.55254943 C136.656608,7.79292404 138.317378,6.78459938 140.057232,6.78459938 C141.915713,6.78459938 143.378772,7.55567118 143.655567,9.59209157 L142.647242,9.59209157 C142.390219,8.26742976 141.540062,7.67429761 140.037461,7.67429761 C138.594173,7.67429761 137.62539,8.40582726 137.62539,9.51300728 C137.62539,10.6992716 138.337149,11.1342352 140.452653,11.5098855 C142.667014,11.905307 143.932362,12.4391259 143.932362,14.4557752 C143.932362,16.1956296 142.647242,17.4609781 140.294485,17.4609781 Z M146.917794,17.2830385 L146.917794,6.94276795 L147.965661,6.94276795 L147.965661,17.2830385 L146.917794,17.2830385 Z M147.431842,4.72840791 C147.016649,4.72840791 146.680541,4.39229969 146.680541,3.97710718 C146.680541,3.58168574 147.016649,3.24557752 147.431842,3.24557752 C147.847034,3.24557752 148.163371,3.58168574 148.163371,3.97710718 C148.163371,4.39229969 147.847034,4.72840791 147.431842,4.72840791 Z M151.741935,17.2830385 L151.741935,6.94276795 L152.789802,6.94276795 L152.789802,8.95941727 C153.264308,7.83246618 154.608741,6.78459938 156.447451,6.78459938 C158.64204,6.78459938 160.12487,7.97086368 160.12487,10.9167534 L160.12487,17.2830385 L159.077003,17.2830385 L159.077003,10.8574402 C159.077003,8.6628512 158.048907,7.69406868 156.210198,7.69406868 C154.490114,7.69406868 152.789802,8.84079084 152.789802,11.0156087 L152.789802,17.2830385 L151.741935,17.2830385 Z M167.835588,21 C164.850156,21 163.466181,19.5369407 163.209157,17.8761707 L164.276795,17.8761707 C164.55359,19.2008325 165.66077,20.1103018 167.815817,20.1103018 C170.030177,20.1103018 171.57232,19.1019771 171.57232,16.5515088 L171.57232,14.4360042 C171.01873,15.6815817 169.575442,16.9469303 167.657648,16.9469303 C165.028096,16.9469303 162.991675,15.0093652 162.991675,12.0041623 L162.991675,11.8657648 C162.991675,8.91987513 165.067638,6.78459938 167.796046,6.78459938 C169.832466,6.78459938 170.979188,7.91155047 171.57232,9.17689906 L171.57232,6.94276795 L172.620187,6.94276795 L172.620187,16.591051 C172.600416,19.635796 170.603538,21 167.835588,21 Z M167.756504,16.057232 C169.852237,16.057232 171.592092,14.5348595 171.592092,11.9448491 L171.592092,11.7866805 C171.592092,9.17689906 170.049948,7.67429761 167.894901,7.67429761 C165.680541,7.67429761 164.079084,9.25598335 164.079084,11.8262227 L164.079084,11.9843913 C164.079084,14.5546306 165.700312,16.057232 167.756504,16.057232 Z" id="Advertising" fill-rule="nonzero"></path>
        </g>
    </g>
</svg>