<?xml version="1.0" encoding="UTF-8"?>
<svg width="1920px" height="815px" viewBox="0 0 1920 815" version="1.1" xmlns="http://www.w3.org/2000/svg" xmlns:xlink="http://www.w3.org/1999/xlink">
    <!-- Generator: sketchtool 51.2 (57519) - http://www.bohemiancoding.com/sketch -->
    <title>C1168800-660E-44EB-8D8A-0B2EC2A11964</title>
    <desc>Created with sketchtool.</desc>
    <defs>
        <linearGradient x1="18.7075091%" y1="49.7500002%" x2="81.0808494%" y2="49.7500002%" id="linearGradient-1">
            <stop stop-color="#0064D3" offset="0%"></stop>
            <stop stop-color="#004B9E" offset="100%"></stop>
        </linearGradient>
        <linearGradient x1="18.4961001%" y1="49.7500002%" x2="81.3318976%" y2="49.7500002%" id="linearGradient-2">
            <stop stop-color="#0064D3" offset="0%"></stop>
            <stop stop-color="#004B9E" offset="100%"></stop>
        </linearGradient>
    </defs>
    <g id="EB" stroke="none" stroke-width="1" fill="none" fill-rule="evenodd">
        <g id="assets-and-ui-components" transform="translate(0.000000, -1417.000000)" fill-rule="nonzero">
            <g id="bg-3" transform="translate(0.000000, 1417.000000)">
                <polygon id="Path-2" fill="url(#linearGradient-1)" points="1.8189894e-12 815.015945 1920 589.767367 1920 0.0159448732 0 218.913654"></polygon>
                <polygon id="Path-2" fill="url(#linearGradient-2)" style="mix-blend-mode: color-dodge;" points="1.8189894e-12 815.015945 1920 589.767367 1920 0.0159448732 0 218.913654"></polygon>
            </g>
        </g>
    </g>
</svg>